-32 -8 936
48 -48 -64 808
-8 -24 -24 -40 -72 -16 -72 680
24 -32 -64 -32 -40 -48 704
-56 48 -56 -64 -64 664
-40 48 -40 -40 16 -16 -56 680
32 -32 -16 -40 -64 -40 -72 -64 568
-8 -48 -72 -64 -16 -24 -8 16 -24 -40 -16 568
-32 -72 872
-56 928
-40 -40 -56 -48 -8 32 -16 -64 -72 544
-72 -24 -8 -72 784
-64 -32 -48 824
-72 24 -40 -8 -72 -16 -32 -64 -32 560
-72 56 -56 -24 -16 -64 -24 -56 560
